<!--  -*- Mode: Markdown; -*-  -->

-----------------------------------------------------------------------------
Friday, April 2, 2021
Jennings
-----------------------------------------------------------------------------

The idea of a pattern-matching operator inspired by Elisp advice and OO mixins
and AOP is presented below.  It was while considering the limitations and
quirks of the regex (and lpeg, and RPL) lookbehind operator that I had the
idea.  Its antecedents are in some notes I wrote years ago for a future RPL
extension that would support the expression in:(X,Y) where X would match a
span of input which becomes the entire input to Y.

* Many regex implementations support a look-behind operator, e.g.:

    Python 3.9.1 (default, Dec 29 2020, 09:45:39) 
    >>> import re
    >>> re.match('a*b(?<=aab)', "aaab")
    <re.Match object; span=(0, 4), match='aaab'>
    >>> re.match('a*b(?<=aab)', "ab")
    >>> 

    $ perl --version | rosie grep '"This is perl"'
    This is perl 5, version 28, subversion 2 (v5.28.2) built for darwin-thread-multi-2level
    $ perl -ne 'print if /^a*b(?<=aab)/' <<< "aaab"
    aaab
    $ perl -ne 'print if /^a*b(?<=aab)/' <<< "ab"
    $ 

* It is a common restriction that the target pattern for lookbehind must have a
  fixed length:

    >>> re.match('a*b(?<=a*b)', "aaab")
    Traceback [SNIP]
    re.error: look-behind requires fixed-width pattern
    >>> 

    $ perl -ne 'print if /^a*b(?<=a*b)/' <<< "aaab"
    Variable length lookbehind not implemented in regex m/^a*b(?<=a*b)/ at -e line 1.
    $ 

  The same restriction applies to negative lookbehind, as we might expect:

    >>> re.compile('(?<![a☃])')
    >>> re.compile('(?<![a☃]+)')
    re.error: look-behind requires fixed-width pattern
    >>> 

  But not to lookahead or negative lookahead:

    >>> re.compile('(?=[a☃]+)')
    >>> re.compile('(?![a☃]+)')

* The fixed length restriction counts the number of characters in Unicode-aware
  regex implementations, even though in the most common encoding UTF-8, some
  characters occupy one byte (`a`) and some several bytes (`☃`).

    >>> re.match('a*(?<=[a☃])', "aaab")
    <re.Match object; span=(0, 3), match='aaa'>
    >>> re.match('a*☃(?<=[a☃])', "aaab")
    >>> re.match('a*☃(?<=[a☃])', "aaa☃")
    <re.Match object; span=(0, 4), match='aaa☃'>
    >>> 

    $ perl -ne 'print if /^a*(?<=[a☃])/' <<< "aaab"
    aaab
    $ perl -ne 'print if /^a*☃(?<=[x☃])/' <<< "aaa☃"
    aaa☃
    $

* In 'lpeg' (here running in Lua 5.3.6), strings are treated as byte sequences.
  As a result, the lookbehind operator, accessed with lpeg.B(), enforces a
  fixed-length restriction that is not Unicode aware.  We cannot construct a
  lookbehind expression that looks for either 'a' or '☃' because (given the
  UTF-8 run-time environment) these characters require 1 or 3 bytes of storage,
  respectively. 

    > s = '☃'; for i=1,s:len() do print(i, string.byte(s, i)) end
    1	226
    2	152
    3	131
    > 
    > lpeg.version()
    1.0.1
    >
    > lpeg.match(lpeg.C(lpeg.P('a')^0 * lpeg.P('b') * lpeg.B(lpeg.P('a') + lpeg.P('aab'))), "aaab")
    stdin:1: bad argument #1 to 'B' (pattern may not have fixed length)
    > lpeg.B(lpeg.P('a') + lpeg.P('aab'))
    stdin:1: bad argument #1 to 'B' (pattern may not have fixed length)
    > lpeg.B(lpeg.P('a') + lpeg.P('b'))
    lpeg-pattern: 0x7f991f0045c8
    > lpeg.B(lpeg.P('a') + lpeg.P('☃'))
    stdin:1: bad argument #1 to 'B' (pattern may not have fixed length)
    > 

    > -- A similar effect happens with the lpeg character SET constructor
    > 
    > lpeg.S('ab')
    lpeg-pattern: 0x7f991f0043a8
    > lpeg.S('ab'):match("b")
    2
    > lpeg.S('ab'):match("c")
    nil
    > lpeg.S('a☃')
    lpeg-pattern: 0x7f991f004ec8
    > lpeg.S('a☃'):match("a")
    2
    > lpeg.S('a☃'):match("☃")
    2
    > (lpeg.S('a☃') * lpeg.P(-1)):match("☃")
    nil
    > (lpeg.S('a☃') * lpeg.P(-1)):match("a")
    2
    > 

* Rosie was originally based on lpeg, and RPL supports the UTF-8 Unicode
  encoding fully.  But lpeg's fixed-length restriction for lookbehind prevents
  Rosie from looking behind for a single character in a set of Unicode
  characters.  This is a SIGNIFICANT PRACTICAL LIMITATION.

    $ rosie match '.<[ab]' <<< "a"
    a
    $ rosie match '.<[a☃]' <<< "a"
    Compile error
	    [compiler]: lookbehind pattern does not have fixed length: [a\u2603]
	    in user input :1:2: .<[a☃]
    $ 

* A new implementation for Rosie is under development now (Wednesday, March 24,
  2021), presenting an opportunity to address this LIMITATION.  But, what
  approach should we take?

  (1) UNICODE STRATEGY: Adopt the approach taken by many regex engines, in which
      the fixed-length restriction for lookbehind is enforced, but the pattern
      length is measured in characters, not bytes.
      Pro - familiar to developers
      Pro - mostly straightforward implementation
      Con - in a combinator language, awkward to limit what we can look behind at

  (2) VARIABLE LENGTH STRATEGY: Remove the restriction that the target pattern
      of the lookbehind operator must have a fixed length.
      Pro - mellifluous in a combinator language
      Con - opens a Pandora's Box of language feature interactions (SEE BELOW)

  (3) ELIMINATE LOOKBEHIND STRATEGY: The lookbehind operator is not part of the
      PEG formalism, so it should be eliminated from RPL going forward.
      Con - developers clearly want this (because they use it)
      Con - it can be easier to specify a pattern using a lookbehind

  The UNICODE STRATEGY is flawed.  A strength of PEGs is their reification as
  an expression-based combinator language.  When a variable-length pattern is
  given a name, perhaps in a module written by another developer, I want as
  few restrictions as possible in how I USE THAT PATTERN.  Consider a language
  like JavaScript in which a function may or may not use the async/await
  feature.  The use of that language feature within a function (in some
  module) written by someone else dramatically affects how I can use that
  function in my JS code.  This is a language design issue: How many kinds of
  footguns are we as designers willing to provide to our users?

  Still, as footguns go, perhaps this one is so minor as to be
  inconsequential.  All languages have expressivity limitations, even Scheme
  and Lisp.  ;-)

  The ELIMINATE LOOKBEHIND STRATEGY is unacceptable, unless we can invent a
  better way to express patterns like these, where lookbehind makes it
  possible to reuse an existing (and complicated) pattern like `net.fqdn`:
  
    $ curl -s www.google.com | rosie grep -o subs 'net.fqdn <".org"'
    schema.org
    $ curl -s www.google.com | rosie grep -o subs 'net.fqdn <".com"'
    www.google.com
    maps.google.com
    play.google.com
    www.youtube.com
    news.google.com
    mail.google.com
    drive.google.com
    www.google.com
    www.google.com
    accounts.google.com
    www.google.com
    www.google.com
    artsandculture.google.com
    x22google.com
    $ 

  The remaining option from our list above is the VARIABLE LENGTH STRATEGY.
  In the domain of (mathematical) regular expressions, lookbehind can be
  implemented by running the matching engine in reverse.  In principle, then,
  the target of a lookbehind operator can be an arbitrary regular expression.
  Modern regex languages, which more resemble agglutinations of features than
  designed tools, do not have the ability to be run in reverse.  (Plus,
  matching Unicode strings in reverse is not trivial -- see
  e.g. https://www.unicode.org/glossary/#character_encoding_scheme and
  https://www.unicode.org/glossary/#combining_character_sequence.)

  How, then, does a regex engine look behind at a variable length pattern?
  The answer is the key to understanding the variety of semantic complexity
  that the lookbehind operator adds to a matching language, whether regex or
  PEG.

  Our examples will be the character sets [ab] and [a☃].  In both cases, to
  look behind at one of these sets is easy: Save the current input position;
  back up by one character; compare the current character to 'a' and 'b' (in
  the first case) or to 'a' and '☃' (in the second).  If the comparison
  succeeds, the lookbehind succeeds, so we restore the original input position
  and continue with the remaining search pattern (after the lookbehind
  expression).

  When characters have a fixed-width encoding, this implementation is trivial.
  ASCII is fixed-width, so regex implementations going back to the 1980s had an
  easy time of it.

  The early 16-bit Unicode standard merely changed the character width to 16
  bits from 7 bits (ASCII) or 8 bits (ISO/IEC 8859-1, which includes ASCII).

  The modern form of the Unicode standard, dating to the mid 1990s, solves a
  thorny problem in class computer fashion, by adding a level of indirection.
  Instead of defining a byte sequence (representation) for each character,
  Unicode simply assigns a number, called a codepoint.  With every character
  numbered (and, ignoring the definition of 'character'), Unicode defines
  several ways to encode (represent) the codepoint of a character.  The most
  popular encoding, UTF-8, is a variable length encoding.

  As of 2020, many sources measure popularity of UTF-8 on the Internet (as
  opposed to within a single piece of software) at 95% or higher.  By
  contrast, Windows, Java, and some other programs continue to use internally
  a variable length non-ASCII-compatible encoding, which is sometimes called
  UTF-16.  Originally conceived as a 16-bit fixed-width encoding, it encodes
  some characters using 32 bits and still others using up to 20 bytes (160
  bits).  Complicating the use of UTF-16 is that (1) it comes in two varieties
  (big-endian and little-endian), and (2) Windows routinely violates the
  UTF-16 standard, forcing other systems to do the same in order to be
  compatible.  The result, predictably, is a lack of compatibility and a
  plethora of security issues.

  [] https://en.wikipedia.org/wiki/UTF-16
  "Windows allows unpaired surrogates in filenames and other places,[citation
  needed] which generally means they have to be supported by software in spite
  of their exclusion from the Unicode standard."
  [] https://hsivonen.fi/string-length/

  One reason that UTF-8 is popular is that it subsumes ASCII, but another is
  that it is a self-synchronizing encoding -- which facilitates scanning
  backwards through a byte sequence to find the start of a character.

  While a fixed-width character encoding makes it trivial to implement
  fixed-length lookbehind, a variable length encoding like UTF-8 at least
  makes it possible.  That is, our example character set [a☃] encoded in UTF-8
  looks in tuple notation like {(97), (226, 152, 131)} where each number is a
  byte value.  The self-synchronizing property of UTF-8 means we can treat our
  input string as a sequence of bytes, and we can reliably scan backwards to
  find the start of a character.

  [] https://en.wikipedia.org/wiki/UTF-8

  If the byte before the current position is in the range [0,127], it is the
  start (and entirety) of a 1-byte representation of a character.  Because the
  encoding of single byte ASCII characters is the identity function, 'a' has
  codepoint 97 and is represented by the byte value 97.  So here's the recipe
  for lookbehind at [a☃]:
    1. If the previous byte is 97, we have matched 'a' and succeeded.
    2. Else if that byte is in [128,191], we keep scanning backwards until we
       find a byte that starts a character.  We will be able to distinguish
       between 2-byte, 3-byte, 4-byte, and invalid UTF-8.
    3. If we find the start byte of a 3-byte character and that start byte is
       226, we compare successive bytes to 152 and 131.  If this 3-byte sequence
       matches, we have matched '☃' and succeeded.  Else the lookbehind failed.
       
  This example generalizes nicely, and an implementation can leverage many
  optimization opportunities, from bailing out early on the search for the start
  of a character to using specialized processor instructions to search and
  compare. 

  Our example suggests a search algorithm for implementing lookbehind:

  Case 1: Fixed-width encoding.  Multiply the character width by the number of
  characters in the lookbehind target.  Rewind the input position by that
  number of bytes, and match the target pattern in the usual forward
  direction.

  Case 2: Variable-width well-behaved encoding.  Reverse the target pattern,
  matching each character by scanning backwards in the input as illustrated by
  our example above.  The technique of reversing the pattern and processing
  the input backwards works for patterns made using the regex operators for
  concatenation, alternation, and Kleene star.  If other operators are allowed
  in the lookbehind pattern, this case grows more complex, if it remains
  possible at all.

  Case 3: Variable-width poorly-designed encoding.  Assuming the lookbehind
  pattern uses a limited set of operators, it's conceivable that this case can
  be solved by working in reverse, as in case 2.  However, the potential for
  ambiguity exists, not to mention numerous edge cases, which will complicate
  the implementation if not destroy hopes of correctness.  Remember also that
  we must handle Unicode strings, and reversing a Unicode string (needed to
  produce the reversed pattern) is not trivial.  Here be dragons, for certain.

  Note that it is often possible in practice to avoid case 3 by converting
  text from an encoding like UTF-16 to a truly fixed-length encoding (UTF-8
  for ASCII text gives a 1-byte width, and UTF-32 in the general case gives a
  4-byte width) or into the well-behaved variable length UTF-8.  Libraries for
  doing such conversions are available and considered reliable.  Unicode
  libraries also provide functions for transforming character sequences to a
  canonical form, and for properly collating (needed for sorting).

  With the notable and unfortunate exceptions of Windows and Java,
  applications and programming languages are steadily changing to UTF-8 for
  internal use.  Some programmers have an unrealistic attachment to the idea
  that a string is merely an array of characters, giving fast random-access
  therein.  That notion is unrealistic due to the necessary concepts of
  combining characters and non-canonical forms; the former is a way of
  handling the complexity of human languages, and the latter is a concession
  to pre-Unicode software and systems that have "embraced and extended" the
  Unicode standard.
  
  A better mindset for programmers is to treat strings like any other abstract
  data type.  Don't presume that you know the underlying representation, nor
  expect to directly manipulate it.  Sure, a great number of applications
  manipulate text, sometimes in great quantities.  To do so efficiently will
  require well-designed string data types, perhaps ones that dynamically
  choose and even change representations, or ones that let the programmer
  demand certain guarantees (like fast random access to characters) from the
  implementation, which can then select a suitable representation (like 32-bit
  characters).

  ASIDE: Considering the complexities of string operations without regex
  (i.e. issues of encoding, canonicalization, and collation), and separately
  considering the wide variety of regex bugs (in syntax, semantics, and
  performance), it is astounding that a great many programs actually work at
  all.  On the other hand, how would we measure how well they work?  Often,
  output that could be examined for correctness is either ephemeral --
  presented to humans who in effect perform manual exception handling -- or it
  is stored away in a database or file, where incorrect program output will
  live quietly and unnoticed until some future time when a human may discover
  the data is nonsensical or wrong.  Worse, humans or other systems may rely
  on data which is incorrect.  Some errors may manifest at a time and place
  quite distant from where they occurred!  It is a research project (or an
  entire program) to classify and measure such errors.  Presuming the errors
  are significant in kind or number (or both -- yikes!), we will have
  motivation to do better.  I envision a set of new analyses and techniques
  that do for text what BLAS and its descendants have done for numerical
  computing.  Modern systems for numerical calculations relieve the programmer
  from many low-level considerations, e.g. from matrix representations to
  numerical stability.

* Whether lookbehind allows only fixed-width target patterns or not, the
  matter of measuring the pattern length can be complicated.

  Earlier, I mentioned that implementing lookbehind can be straightforward,
  provided that only basic operations are used in the lookbehind target
  pattern.  What happens if we allow predicates in a lookbehind expression?

  One type of predicate is the so-called "zero width assertions": lookbehind,
  lookahead, and their negations.  The term "zero width" is an oblique way of
  saying that the current position in the input is unchanged after processing
  one of these operations.  Can we allow, for example, a lookahead within a
  lookbehind?

  Another type of predicate comprises the regex "boundary" tests, like '\b'
  which matches a "word boundary".  (The definition of a word boundary varies
  across regex implementations, but that's another issue.)  The word boundary
  within a regex does not change the current position in the input.  Like
  lookbehind itself, it is a predicate that, if it evaluates to true
  (success), allows the regex matching to continue.  A predicate that
  evaluates to false is a local match failure, not materially different from
  trying and failing to match 'a'.

  Can we allow, for example, a word boundary '\b' or a negative word boundary
  '\B' within a lookbehind expression?  The question devolves to whether we can
  allow "zero width assertions", since we can rewrite '\b' using lookahead and
  lookbehind:

  OR( AND(at start of input, look ahead matches [A-Za-z0-9_]),
      AND(at end of input, previous char matches [A-Za-z0-9_]),
      AND(prev char matches [A-Za-z0-9_], look ahead matches [^A-Za-z0-9_]),
      AND(prev char matches [^A-Za-z0-9_], prev char matches [A-Za-z0-9_]) )

  See python-word-boundary.py for a demonstration implementation in Python.

  What about the regex "anchors", i.e. the '^' that "anchors a match" at the
  start of the input (or a line, depending on certain flags) and the
  corresponding '$'?

  Again, the question devolves to the one on "zero width assertions".  Modulo
  a variety of edge cases in which the dot (meaning "match any character")
  matches a newline or not, we can define the "start anchor" ('^') as "not
  looking behind at a character", and the "end anchor" ('$') as "not looking
  ahead at a character".  See python-word-boundary.py for a demonstration.

  We have defined a predicate as an expression that (1) leaves the current
  input position unchanged after its evaluation, and (2) determines whether
  its containing expression continues matching or fails.

  Predicate expressions have zero length.  Do they, in fact, contribute
  nothing to the length (in characters) of a pattern in regex implementations
  like Perl and like re in Python?

  Recall that pattern length is measured in chars:
    >>> re.compile('(?<=[a☃])')
    >>>   
  And that a lookbehind target pattern must have a fixed length:
    >>> re.compile('(?<=[a☃]+)')
    re.error: look-behind requires fixed-width pattern
    >>>   
  We can put a lookbehind inside a lookbehind, and it compiles!
    >>> re.compile('(?<=[a☃](?<=x))')
  Trying it out, we expect this one to fail and it does:
    >>> re.match('a☃(?<=[a☃](?<=x))', 'a☃')
    >>>   
  Trying it out, we expect this one to succeed and it does:
    >>> re.match('a☃(?<=[a☃](?<=☃))', 'a☃')
    <re.Match object; span=(0, 2), match='a☃'>
    >>>   
  Here's a variation where the target has length two:
    >>> re.match('a☃(?<=a☃(?<=☃))', 'a☃')
    <re.Match object; span=(0, 2), match='a☃'>
    >>>   
  Finally, one where the second lookbehind is longer:
    >>> re.match('a☃(?<=☃(?<=a☃))', 'a☃')
    <re.Match object; span=(0, 2), match='a☃'>
    >>>   

  The length of `☃(?<=a☃)` appears to be one character.  This fixed length
  pattern is a valid target of the lookbehind operator as our example above
  shows. 

  What happens if we apply the lookbehind operator to a pattern that contains a
  lookahead? 

    >>> re.match('a☃(?<=a☃(?=♥))', 'a☃♥')
    <re.Match object; span=(0, 2), match='a☃'>
    >>> 

  Interesting!  First, we notice that we can indeed use lookahead within a
  lookbehind expression.  Second, the lookahead does indeed look AHEAD of the
  input position at which we invoked the lookbehind.

  Inside the lookbehind, if we first look AHEAD, we fail to match ♥, though we
  might expect to because that is the next character in the input at the point
  where the lookbehind expression is encountered.
    >>> re.match('a☃(?<=(?=♥)a☃)', 'a☃♥')
    >>> 
  Next, we look behind for 'a', ahead for '☃', then behind for '☃', and this
  succeeds: 
    >>> re.match('a☃(?<=a(?=☃)☃)', 'a☃♥')
    <re.Match object; span=(0, 2), match='a☃'>
    >>> 
  Finally, we show again that we can look ahead beyond the point in the input at
  which we encountered the lookbehind expression:
    >>> re.match('a☃(?<=a(?=☃♥)☃)', 'a☃♥')
    <re.Match object; span=(0, 2), match='a☃'>
    >>> 

   Having negative lookahead inside of lookbehind appears to work as expected: 
    >>> re.match('a☃(?<=a(?!☃)☃)', 'a☃♥')
    >>> re.match('a☃(?<=a(?!♡)☃)', 'a☃♥')
    <re.Match object; span=(0, 2), match='a☃'>
    >>> 

   And using negative lookahead inside of lookbehind also appears to work as
   expected, provided we think carefully about what we should expect:
    >>> re.match('a☃(?<=a(?<!a)☃)', 'a☃♥')
    >>> re.match('a☃(?<=a(?<!♡)☃)', 'a☃♥')
    <re.Match object; span=(0, 2), match='a☃'>
    >>> 

* What have we learned?

  First, to the extent that Perl and Python have typical modern regex
  implementations (and when they agree on semantics and limitations), we
  learned that they enforce a fixed-length restriction on a pattern that is
  the target of a (negative or positive) lookbehind.

  There is no need for such restrictions on (negative or positive) lookahead
  because the implementations can simply save the current input position,
  attempt to match (or fail to match) the lookahead (or negative lookahead),
  and then restore the saved input position if matching will continue.

  There are clear benefits to measuring a regex pattern length using
  characters instead of bytes.  First, the fixed-length lookbehind restriction
  does not prevent us from using lookbehind to find [a☃], which in UTF-8 is a
  set containing a 1-byte character and a 3-byte character.  Second, in
  exhibiting a semantics based on character count, the programmer does not
  need to think about encodings, only characters.

  Except, that is not the whole story.  Why do the two apparently identical
  calls to re.match give different answers below?

    >>> re.match('[aá]', 'á')
    >>> re.match('[aá]', 'á')
    <re.Match object; span=(0, 1), match='á'>
    >>> 

  The definition of a character is historically muddled.  In Unicode, the
  situation improves because a character is a conceptual entity, an
  abstraction that has been assigned a number:

    - The Latin small letter a has the codepoint U+0061.
    - The acute accent  ́ has the codepoint U+0301.
    - When written sequentially, these two characters are rendered as á.

    The rendering á is a single "glyph".  A glyph is the shape of a character,
    and in cases like this, the shapes of consecutive characters are combined
    together into a single shape when the characters are rendered.

    (Incidentally, this is how a single emoji like a face can be rendered with
    attributes like a skin tone or hair that is white or red.  A sequence
    begins with one of the Unicode face characters, followed by, for example,
    a "medium skin tone" character and a "white hair" character.  An
    application, like your browser, sees this character sequence and combines
    them into a single glyph.)
  
  However, this does not explain how we got a match and a mismatch from what
  appeared to be the same call to re.match().  The answer lies in the fact
  that:

    - The Latin small letter a with acute has the codepoint U+00E1.

  What? The glyph that we obtained earlier using U+0061 (a) followed by U+0301
  ( ́) can also be obtained as a single character!  You may have seen this
  coming.  Before Unicode, the "extended Latin" character sets used 8-bit
  values like 225 (hex E1) for the accented characters common in European
  languages.  The systems using the extended Latin extension to ASCII wanted
  their character set to be copied wholesale into Unicode, and they got it.
  Later, as Unicode evolved its system of "combining marks" -- characters
  that, when rendered, should be combined with preceding characters into a
  single glyph -- they ended up with two (or more) ways to produce a single
  glyph like á.

  Here, the á in the regex is a sequence of a and ́.  Note that this regex
  character set contains THREE characters (two of which are a)! The input
  string consists of single character á which will not match either of the
  (identical) a characters in the regex character set, nor the ́ in that set.

    >>> re.match('[aá]', 'á')
    >>> 

  The example below uses the same regex, but the input string is a
  two-character sequence of a and ́.  The first character in the input is
  matched!

    >>> re.match('[aá]', 'á')
    <re.Match object; span=(0, 1), match='a'>

  We can highlight what exactly is matching by changing the regex thusly:

    >>> re.match('^a', 'á')
    <re.Match object; span=(0, 1), match='a'>
    >>> 

  In the next example, the regex character set is different.  It is a
  two-character set consisting of a and á, so of course it matches the input,
  which is also the single character á (codepoint U+00E1).

    >>> re.match('[aá]', 'á')
    <re.Match object; span=(0, 1), match='á'>
    >>> 

  Again, to highlight just what is matching, let's simplify the regex:

    >>> re.match('á', 'á')
    <re.Match object; span=(0, 1), match='á'>
    >>> re.match('^á$', 'á')
    <re.Match object; span=(0, 1), match='á'>
    >>> 

  Using only the two ways of constructing the á glyph, we get this disturbing
  lack of a match (though we now know why):

    >>> re.match('á', 'á')
    >>> 

  We have now seen different ways to construct what looks like the same
  character.  But it's not the same character, it's a glyph that can be made
  from one character or two (different) characters.

  I like the idea of a text-processing semantics defined using characters,
  i.e. at a level of abstraction above the encodings of characters.
  Unfortunately, we can work with characters and encounter significant
  footguns during regex matching.

  The character abstraction from Unicode is employed effectively in modern
  regex engines, but is not embraced by lpeg, a PEG implementation that
  operates at a lower level of abstraction, namely bytes.  RPL, built
  originally on lpeg, layers its UTF-8 Unicode awareness on top of lpeg.  But
  the Unicode abstraction is brittle in at least one place: the inability to
  lookbehind for a single character from a set, where the character set
  contains single- and multi-byte character encodings in UTF-8.

  Since we are writing a new "core" for Rosie/RPL, we must take this
  opportunity to address this situation.  The UNICODE STRATEGY we described
  has a straightforward implementation based on the Unicode character
  abstraction.  Under the covers, we can hide the fact that characters may
  have fixed-width or variable-width encodings.

  But we just saw an alarming limitation to this approach.  The character
  abstraction is useful but it cannot solve our confusion over identical
  glyphs that have different character representations (which in turn are
  independent of the character encoding!).

  Identical and similar-looking glyphs have been a known security issue for a
  long time.  A URL or organization name may look genuine but in fact reflect
  different character sequences.  One character sequence in a link may take
  you to your bank, and other to someone who pretends to be your bank.

  To bring the discussion briefly back around to the fixed-length restriction
  on lookbehind expressions, notice that we can match (and look ahead for)
  either construction of á (the 1-character one and the 2-character one) using
  the regex `á|á`.  But we can't look behind for this expression!

    >>> re.compile('á|á')
    >>> re.compile('(?<=á|á)')
    re.error: look-behind requires fixed-width pattern
    >>> 

   The restriction here is independent of character encoding.  Remember that
   we already showed that regex engines (generally) measure pattern length in
   characters, not in bytes.  The problem above is due to one glyph á
   consisting of a single character, and the other á consisting of two
   characters.

* What is the right abstraction for text matching with regex and PEGs?

  It's surely the character abstraction (unless we can come up with something
  wildly new), because the glyph is (1) an image, that is (2) designed for human
  consumption, and which (3) varies from one font to another.

  But we need to think about how the canonical and compositional forms, and
  their associated normalization algorithms, impinge on how we think about
  text matching.  In particular, suppose we assume that text to be searched is
  immutable in form.  I know this contradicts how most regex engines are
  built, but in fact that's a good reason to explore the idea, to see what
  we're missing.

  When regex does case-insensitive matching on ASCII text, the approach is
  usually to down-case both the pattern and the input text, and then do a case
  sensitive match, i.e. comparing byte for byte.  For Unicode, the situation
  is significantly more complex.

  See Unicode® Technical Standard #18: UNICODE REGULAR EXPRESSIONS.
  https://www.unicode.org/reports/tr18/

    C1. An implementation claiming conformance to Level 1 of this
    specification shall meet the requirements described in the following
    sections: 
	RL1.1 Hex Notation
	RL1.2 Properties
	RL1.2a Compatibility Properties
	RL1.3 Subtraction and Intersection
	RL1.4 Simple Word Boundaries
	RL1.5 Simple Loose Matches
	RL1.6 Line Boundaries
	RL1.7 Supplementary Code Points
    C2.	An implementation claiming conformance to Level 2 of this
    specification shall satisfy C1, and meet the requirements described in the
    following sections:  
	RL2.1 Canonical Equivalents
	RL2.2 Extended Grapheme Clusters and Character Classes with Strings
	RL2.3 Default Word Boundaries
	RL2.4 Default Case Conversion
	RL2.5 Name Properties
	RL2.6 Wildcards in Property Values
	RL2.7 Full Properties
  
      ========================================================================
      NOTE: We are not even considering the corner cases introduced by
      language designers who think that rules for handling a string (which is
      a data structure!) is to simply guess what the programmer intends:

      "Perl only uses the Unicode meanings when there is some indication that
      Unicode is what is intended"
      https://perldoc.perl.org/perlunicode#ASCII-Rules-versus-Unicode-Rules

      And, WORSE STILL, to revise that guess during program execution:

      "a string's semantics can suddenly change if a code point above 255 is
      appended to it, which changes the rules from ASCII to Unicode"
      https://perldoc.perl.org/perlunicode#The-%22Unicode-Bug%22
      ========================================================================

  RL2.1 considers the difficulties in matching text when a set of character
  sequences are considered canonically equivalent. 

  The recommended approach is to normalize the both the search pattern and
  input text to NFD or NFKD (decomposed) form.  The regex matching engine then
  matches codepoint by codepoint.  The approach is independent of encoding
  (UTF-8, UTF-16LE, etc.), and it is encouraging that the encodings do not
  leak through the character abstraction.

  But the approach has two flaws.  First, it restricts the text that can be
  searched to valid Unicode with a known encoding.  That's a problem because
  (1) determining the encoding when it is not known is fraught; and (2) the
  world's data is not Unicode compliant.  Windows regularly violates the
  UTF-16 standard, for example.  Then there are those situations in which
  flawed string-handling (naive concatenation, e.g.) or simple data errors
  result in text that is not valid in any Unicode encoding.

  The second flaw is that the search pattern must also be valid Unicode.  If
  we agree that searching invalid Unicode text is important, then we must also
  concede that users will want to specify patterns, occasionally, that cannot
  or should not be normalized into NFD/NFKD form because the user is trying to
  access a level of abstraction at the encoding level, i.e. below Unicode's
  CHARACTER abstraction.

  If we want to give users the power to work at the encoding level, then we
  must acknowledge that this level exists, and consider what tools we might
  provide for moving between levels of abstraction.

  Other issues with normalizing the input text:
  - Normalization is not invertible (e.g. consider input text with some
    sequences in Composed form, and other sequences in Decomposed form), so if
    you need to audit or debug the matching process, you must retain the
    original input text and the normalized text.
  - Time needed (performance) to normalize
  - Space needed (performance) to normalize
  - Indeed, the need to even COPY an input text hinders performance when the
    data is already in memory and could have been matched in place.

  So, again we consider: Is there a workable approach to Unicode text matching
  that does not require the normalization of the text to be searched?

  - The user could specify exactly what they want to match at the encoding
    level.  This is what RPL does today, by (1) assuming UTF-8, and (2)
    requiring the user to specify any alternate character sequences that she
    considers equivalent, given the task at hand.  The latter aspect is
    unfortunate, as it merely puts the complexity onto the user.  However, we
    are able to provide case-insensitive Unicode matching using this approach,
    and the approach seems quite extensible to canonical forms.  In essence,
    the RPL compiler generates disjunctions in case-insensitive situations.
    E.g. ci:"a" ==> [aA]

  - The user could specify which normalization form they want to match,
    because maybe their use case requires that they identify only the composed
    form and NOT the decomposed form of certain character sequences.  Note
    that the user can specify their search pattern in a different
    normalization form from what they want to match in the input -- the
    pattern compiler can certainly do the conversion for them!

  - Ideally, the user can mix these two approaches in a way that lets them
    move easily between normalized characters, characters, and encodings.

    E.g. ci:"á" matches the character 'á' or the character 'Á', but under
    which normalization rule, NFC/NFKC or NFD/NFKD?  Or both?
    
    ========================================================================
    Note: NFC and NFD are meant to be lossless in the sense that they do not
    discard information, whereas NFKC and NFKD will intentionally do so,
    e.g. in how they treat a character used as a superscript or subscript, or
    a character in a circle, like ®.  The latter forms are useful for
    searching, where we may want the search pattern 'R' to match (part of)
    ®. The NFKC and NFKD forms give a normalized form that is "compatible"
    with the original -- in the sense that 'R' is compatible with ® or '1' is
    compatible with ① -- not a "canonical" form of the original.

    Given that the result of NFC normalization is defined by first producing
    the NFD form and then running a combining algorithm, and likewise for
    NFKC, the NFD/NFKD forms are often preferred in text processing for their
    relative efficiency.

    Unicode® Standard Annex #15 UNICODE NORMALIZATION FORMS
    https://www.unicode.org/reports/tr15/ 
    ========================================================================
    Note that security issues posed by look-alike glyphs are not solved by
    normalization.  So-called "confusable" characters may look alike or even
    identical in certain fonts, but they are not necessarily equivalent
    canonically, nor equivalent under compatibility.  The "confusables" form
    an evolving set of, let's say "confusably equivalent" grapheme sequences.
    Any robust text matching tool should help users specify patterns (and
    accompanying tables of confusable equivalents) that should be matched
    against confusable variants, perhaps separately or in addition to
    canonical or compatible equivalents.

    https://unicode.org/faq/char_combmark.html
    ========================================================================

    At the encoding level, we can deal with bytes, or possibly both bytes and
    words (due to UTF-16 LE and BE variants).  At the character level, the
    user may want to match Á as written, in Composed form, in Decomposed form,
    or in both forms.

    From a design standpoint, this seems quite achievable.  The only case not
    enumerated is that a sequence of combining characters may not be in the
    canonical order, and this may be true of the search pattern or of the
    input text.  If the search pattern is non-canonical, it can still be
    matched as written.  And it can be matched to text that is in Composed or
    Decomposed form.

    But what about text which is in no normal form at all?  This is where our
    hope of not normalizing the input text looks bleak.  However, in practice
    the sequences of combining characters that are actually used are
    relatively short.  Can we generate matching instructions that recognize a
    set of combining characters IN ANY ORDER in the input text?  Let's review
    combinatorics.  Two combining characters can appear in two different
    orders.  Three can appear in 6 different orders.  N can have N! different
    orders.  How many combining characters may appear in a sequence?  The
    standard enforces no limit, so we must ask instead how many are likely to
    appear in text, and therefore in a search pattern?  TODO.

    A normal-form-independent matcher could generate a search pattern with
    these relatively small numbers of disjunctions, to match a grapheme
    cluster no matter how it shows up in the input.  A matcher could also
    choose to normalize tiny fragments of the input text on the fly, and
    compare the resulting canonical forms to a pre-computed canonical form
    based on the search pattern.

    Either approach could work.  It's important to observe that these
    techniques are only needed when the input text has the property that it is
    neither in Composed form, Decomposed form, nor a mix of the two!  The use
    case here is where the input text contains one or more grapheme clusters
    that are in no canonical form whatsoever.

    It seems reasonable to think that such text is rare -- though surely it
    must exist.  Its rarity, should this be the case, does NOT suggest that we
    avoid addressing the use case.  Rather, rarity suggests that the more
    efficient processing of the normal forms (or of their mix) will be the
    common case.  Users may well decide to treat non-canonical Unicode as
    invalid Unicode in this limited sense:  If the input text does not follow
    Composed, Decomposed, or a mix of the two, then we know that matching may
    fail.  A preprocessing step could exclude such documents, but of course if
    preprocessing were acceptable, it could be used to normalize and thus
    obviate the problem.

    To sum up: Allow the user to write patterns at the character level, and to
    specify whether what they wrote should be matched (1) as written, (2) in
    Composed form, (3) in Decomposed form, (4) in either Composed or
    Decomposed form, or (5) in any form.

    When the user asks for (5), they can know that it could be expensive.
    (This is similar to doing a database search when you know there is no
    index, or a join under similar circumstances.)  The pattern compiler can
    produce informative feedback about this choice.  Yet, it should be
    implemented because the user may need it -- and the Unicode standard
    allows such text to be valid Unicode.

    Further, a user-supplied table of character equivalences could be used to
    specify confusable grapheme clusters, and the matching algorithm could,
    orthogonally to (1)-(5) above, be asked to match "confusables" as well.
    (Indeed a viable mechanism for this is exactly the same as used today by
    RPL to match case-insensitive Unicode strings.)


* With the CHARACTER abstraction as seen in Unicode, can we build tools that let
  us do text matching correctly, efficiently, and securely, despite the inherent
  challenges of the model?

  TODO: Elaborate.

  I suspect we can build better tools than we have today in the form of the
  regex and string libraries in common use.  From syntactic to semantic to
  performance problems, there is room for improvement.  I would start by
  unifying all string operations into a single ADT/library, because the pattern
  matching (usually regex) part should not have its own separate semantics,
  disconnected from other string manipulation operations.

  But can we do this using the character abstraction?  I think we MUST, at least
  and until we can come up with a better one -- and a better one has to mesh
  well with the status quo, i.e. the vast array of Unicode-aware tools and the
  vast amount of (properly and improperly) Unicode-encoded text in the world.

* Can we now, at last, return to the design question of how to add lookbehind to
  a PEG-based language like RPL?

  Yes, and I'm so glad you asked.  Let's review some options.

  The UNICODE STRATEGY is to adopt the Unicode character abstraction, measure
  pattern length in characters, and allow lookbehind at only fixed-length
  patterns.  A subsequent open question of design is whether predicates should
  be allowed in lookbehind expressions (as they are in regex).

    DQ1a: (Design Question 1a) Should we adopt the character abstraction?  If we
          do, then how can we retain Rosie's ability to (1) gracefully handle
          improperly encoded characters, (2) easily handle binary data, and (3)
          adapt to text encodings by altering RPL definitions (including in the
          preamble)? 

    DQ1b: Should predicates be allowed in lookbehind expressions? Regex engines
          (Python and Perl, at least) allow predicates in lookbehind targets.
          Since predicates have zero length, their presence does not alter the
          length of a pattern.  But predicates in lookbehind can create some odd
          semantics, e.g. where the characters after the current one can affect
          the success of a lookbehind.

  The VARIABLE LENGTH STRATEGY is to remove the fixed-length restriction.  The
  adoption of the character abstraction is an orthogonal question.

    DQ2: In a combinator language like RPL, patterns that cannot be used in
         certain expressions introduce friction.  What are the ramifications of
         keeping the character abstraction while eliminating the fixed-length
         restriction on lookbehind?

  Finally, should we instead ELIMINATE the LOOKBEHIND operator?  

    DQ3: Lookbehind is not a regular expression operator, nor a PEG operator.
         It appears to exist because it facilitates writing certain regex
         patterns.  And in a combinator language like PEGs, lookbehind enables
         reuse of existing patterns, which is a core value when building
         patterns out of existing patterns.

* Don't Look Back

  If we answer DQ3 by eliminating lookbehind, the only remaining design question
  is DQ1a: Should we adopt the character abstraction?  So let's investigate DQ3
  first. 

  Consider the analogy of CLOS mixins or elisp advice or AOP.  These systems
  allow a programmer to alter how existing functions/methods are used.  In
  elisp, I can attach my own function, f (which I have to call "advice"), to an
  existing function g.  When g is executed, whether invoked by me or, crucially,
  by existing code that uses g, my function, f, will also run.  I can arrange
  for f to run before g, around g, after g, or instead of g.

  This is a very powerful feature!  It enables a dramatic range of ways to reuse
  existing functionality.  It comes at a cost, though.  Any static analysis done
  prior to adding (or changing) advice must be re-done.

  RPL as a language admits many static analyses.  Compiled modules consist of
  bytecode that may be highly optimized based on such analyses.

  If we envision an advice-like approach to obviating lookbehind, we must
  consider the impact on modularity and ahead-of-time compilation.

  Setting those issues aside for the moment, how could we use the concept of
  mixins or advice or AOP here?

  Our canonical example will be `net.fqdn <".org"`, in which our goal is to use
  `net.fdqn` but modify it to match only text that ends in ".org".

  As a thought experiment, how could we write the same expression without
  lookbehind?

  We could write an expression like `find:{".org" $}` in RPL, which matches text
  that ends in ".org".  (Except that `find` is not possessive, and so we
  probably want a possessive operator here.)  Then in an advice-like fashion, we
  could combine this expression with `net.fqdn`.

  With this definition (for convenience):

    ENDS_IN_ORG = find:{".org" $}

  We might write something like:

    ORG = advice_after:(net.fqdn, ENDS_IN_ORG)

  Perhaps "after" advice in our thought experiment is a pattern that receives as
  input the text matched by the advised function.  So, first 'net.fqdn' has to
  match.  Then, `ENDS_IN_ORG` executes in an environment in which the entire input
  is the text that matched `net.fqdn`.

  Like elisp advice, the return value of the composition of original function
  and advice is the return value of the original function.  So if ORG matches
  "schema.org" as we expect it should, the Rosie output would be:

    {"type": "net.fqdn", 
     "data": "schema.org", 
     "e": 11, 
     "s": 1}

  Note that this is the same output we expect from `net.fqdn <".org"` because
  lookbehind is a predicate.

  It sure seems that an advice-like approach gives some desirable expressivity.
  After all, the `ENDS_IN_ORG` pattern need not examine just the end of the match
  of 'net.fqdn'.  It could examine any part of it, including all of it!

  We seem to have designed the ability to run arbitrary patterns as if they were
  predicates on the result of another pattern.  Sounds powerful.  Can we compile
  advice into efficient bytecode?

  When we use `advice_after` instead of lookbehind, it appears that the
  resulting bytecode would be no worse than what we get today when we compile
  `net.fqdn <".org"`.  The `ENDS_IN_ORG` pattern is simply a call to `find` with an
  argument that ends in `$` (the end of input marker).  Surely a decent RPL
  compiler could recognize this pattern and emit bytecode that does no more work
  than the current expression `<".org"` would.

      ASIDE: 'find:{e $}' is idiomatic RPL for "ends in <e>".  The RPL compiler
      today DOES NOT recognize this idiom, and consequently generates terrible
      code for it!
  
  Can 'advice_after' help us achieve other goals?  Can we still generate
  efficient bytecode?

  First, observe that (in our thought experiment) the advice runs on an input
  which is the output (match) of the original function, which in the worst case
  is the entire input.  A naive compiler may emit code that runs the original
  pattern and then runs the advice pattern, for a cost of O(n+m).

  Second, it seems likely that there exist optimizations which can improve the
  expected time.  And, if advice is always treated as a predicate, we may do
  better than O(n+m) space.

  While it is dangerous to _depend_ upon the _expected uses_ of a language
  feature, it's ok to discuss such expectations.  We expect the advice patterns
  to most often examine only parts of their input, perhaps mostly prefixes and
  suffixes.  (Surely, though, there are uses for parsing a piece of text twice
  using different patterns.  The PEG that matches a^n b^n c^n does this, but
  that's quite an artificial example.

  If 'advice_after' can replace lookbehind, and is more expressive, and is
  (likely to be) efficiently implementable, then maybe we should adopt the
  ELIMINATE LOOKBEHIND STRATEGY.

  Note that we could apply inter-procedural optimization to generate different
  bytecode for a function-with-advice than would otherwise execute if the
  function and its advice were compiled separately.  A range of approaches are
  apparent: 

   - Fast compilation of a function-with-advice should be possible by reusing
     existing bytecode for both function and advice, provided they have already
     been (separately) compiled.

   - Better performing bytecode for a function-with-advice may be obtainable
     using inter-procedural optimization and the source for both function and
     advice, at the cost of having the sources and a more complex compilation.

   - Finally, for completeness we note that it also may be possible to improve
     the bytecode for a function-with-advice by starting with bytecode for the
     function and its advice (from prior compilation) and restricting ourselves
     to bytecode-based optimization passes.

* Other uses of `advice_after`

  The semantics suggested in our thought experiment, in which `advice_after`
  existed, are straightforward.  They re-use existing semantics of a PEG-like
  language that does not support lookbehind.  Clearly, `advice_after` can also
  solve other thorny problems involving pattern reuse.  For instance, suppose we
  want to find text that matches `net.fqdn` but starts with "www".

  In Rosie 1.2.2, we might do this:

    $ curl -s www.google.com | rosie grep -o subs '>"www" net.fqdn'
    www.google.com
    www.youtube.com
    www.google.com
    www.google.com
    www.google.com
    $ 

  This (above) is not necessarily a robust approach, however.  It depends on our
  having accurate knowledge of `net.fqdn`, specifically that every `net.fqdn`
  match begins with a domain name component.  If we go read the file net.rpl, we
  learn that is indeed the case.  The first pattern matched is `subdomain`.
  
  The same kind of latent bug was lurking as well in our "ending in .com"
  example, actually.  The semantics of `net.fqdn <".com"` that we _want_ is that
  the last component of the domain name is ".com".  The actual semantics of this
  expression, though, is that the last 4 characters matched by `net.fqdn` are
  ".com".

  And the last characters matched by `net.fqdn` are not necessarily a domain
  component, because the pattern `net.fqdn` accepts an optional port
  specification! 

    $ rosie match -o jsonpp 'net.fqdn' <<< "www.example.com:8080"
    {"e": 21, 
     "data": "www.example.com:8080", 
     "s": 1, 
     "type": "net.fqdn", 
     "subs": 
       [{"e": 21, 
	 "data": "8080", 
	 "s": 17, 
	 "type": "net.port"}]}
    $ rosie match -o jsonpp 'net.fqdn <".com"' <<< "www.example.com:8080"
    $ 

  We probably should have investigated this possibility when we added the advice
  to `net.fqdn`.  After all, OO mixins are notorious for accidentally breaking
  behavior on which existing code depends, and Elisp advice can do similar
  damage.  (I don't have enough experience with AOP to know if the situation is
  better where the term "AOP" is used, but I suspect not.)

  Ok, let's assume we did look at the source for `net.fqdn`, and we saw that we
  can't just configure an advisory "ends with .com" pattern.  We may have found
  the pattern 'net.fqdn_practical', which does not match an optional port
  specification.  We could write

    advice_after:(net.fqdn_practical', ENDS_IN_ORG)

  and be confident.  In Rosie v1.2, where we don't have the hypothetical advice
  capability, we can nonetheless solve this particular problem with lookbehind:

    $ rosie match -o jsonpp 'net.fqdn_practical' <<< "www.example.com:8080"
    {"e": 16, 
     "s": 1, 
     "data": "www.example.com", 
     "type": "net.fqdn_practical"}
    $ rosie match -o jsonpp 'net.fqdn_practical <".com"' <<< "www.example.com:8080"
    {"e": 16, 
     "data": "www.example.com", 
     "s": 1, 
     "type": "*", 
     "subs": 
       [{"e": 16, 
	 "data": "www.example.com", 
	 "s": 1, 
	 "type": "net.fqdn_practical"}]}
    $ 

  Our goal here, though, is to look for ways to achieve exactly these kinds of
  use cases without lookbehind.  And the idea of 'advice_after' seems promising
  in that regard.

  We wrap up the introduction of `advice_after` by noticing that, in general, we
  may not be so lucky as to find `net.fqdn_practical`.  That is, we may have
  only a pattern like `net.fqdn` at hand.  The definition that we've been
  exploring for `advice_after` is fairly straightforward: the advising pattern
  executes in an environment that can access only the input text span matched by
  the advised pattern.

  We can conceive of a generalization in which the advising pattern accesses the
  text matched corresponding to a sub-match of the advised pattern.  Surely we
  could find a way for `ENDS_IN_ORG` to see only the `fqdn_practical` part of
  `net.fqdn`.  But, should we?

  In the next section, we consider whether advice should have access not only to
  the input span matched by the pattern it advises, but also the match structure
  itself.
  
* Generalizing `advice_after`

  TODO: Maybe we can match an advice pattern against a sub-match of another
  pattern.  Like, match the "net.authority" field that is part of a match to
  "net.url"?  This is just like advice_after except that the scope of the input
  is not the entire match but is instead the scope of a sub-match.

  If an advice pattern can access the structure of the match produced by the
  pattern it advises, we are in _backreference_ territory!  But maybe we're
  paving some roads through this territory, instead of wandering in the
  wilderness trying to figure out how backreferences fit into a PEG matcher.
  (See Rosie v1.2 for an experimental implementation whose semantics are based
  on nothing more than "seems to behave like we expect".)

  Also: There's a strong connection to the "in:" or "within:" idea that I've had
  for a few years, where we can limit the input available to match a specific
  pattern -- all within a larger pattern expression.

  Looks at this early stage of development of the advice idea that we are
  looking at a generalization of that "input scoping" idea.


* Features derived from other modes of advice

  In the previous section, we looked only at `advice_after`.

  `advice_before` might be something like the "input scope" concept we wrote
  about a long time ago.  In an expression like this:

    advice_before:(advised_pat, advising_pat)

  perhaps the `advising_pat` runs first, and, if it matches, the span of its
  match is the only input that can be accessed by advised_pat.  For example, in
  the expression:

    advice_before:("<" net.email ">", "<" find:">")

  The second expression matches "<" and all the text up to the first ">".  Then
  the advised pattern runs, and tries to match an email address between the
  angle brackets.  Maybe this is not a strong example, because the only obvious
  motivation for it is performance.  That is, if it's likely that the subsequent
  ">" does not exist in the input, then we save the work of trying to parse text
  as an email address.

  A better example would be one in which we want to use `.*` or similar
  "elastic" expressions, but we want to limit their scope to just one span.
  That way, we avoid the exponential-time blowup of catastrophic backtracking,
  in which the entire input is consumed by `.*` at first, before the regex
  engine backs off.

  A related issue, though, is to understand when the regex `.*` is what we want,
  versus the possessive regex `.*+`, or PEG `.*` (which is possessive by
  default).  It seems that most regex performance issues are resolved by
  converting to the possessive.  And we know this is why Rosie can do linear
  time matching of expressions with several Kleene star operators (not `.*`
  which eats all the input, but things like `{a/b}*{a/c}*`).  The RPL (PEG)
  benefit probably derives from the user writing `*` whether they understand it
  will be possessive or not, and it works because that was the right solution
  all along.
  
  Would a "fast forward" operator help clarify things for the programmer?
  Suppose `>> exp` meant (RPL) `{!exp .}* exp`.  It would be possessive, so not
  elastic like the regex `.*<exp>`.  It would be used as a possessive version of
  `find:exp`.

  Continuing a line of thought from many months ago, we could have a system that
  allowed the regex `.*` (and company) to be used but with warnings, especially
  when used in an undelimited context, i.e. in any place outside the `advice`
  forms we've been discussing.

  POSSESSIVE APPROACH 1: Allow non-possessive operators like `|` and `*` because
  they are familiar from regex and have direct translations into finite
  automata, thus allowing non-backtracking implementations.  Warn when these are
  used in a way that produces super-linear runtime.  (Downside is that you may
  not see the warnings until you start composing with patterns that use these.
  On its own, a `.*` is relatively harmless, but when you start combining it,
  you get into trouble.  (Analogy to the view of async js functions as tainted.) 

  POSSESSIVE APPROACH 2: Make `*` possessive, like in PEG, and use ordered
  possessive choice `/` like in PEG.  Allow non-possessive operators, but make
  them harder to use by giving them different/longer names like `||` and `**` or
  even functional names like `choice:exp` and `kstar:exp`.  (Downside is that
  the default is PEG semantics, which throws off people coming from regex who
  think that `a.*b` is fine.)
  
  POSSESSIVE APPROACH 3: Define a new set of possessive operators and encourage
  their use.  The non-possessive regex operators can keep their syntax, like `|`
  and `*` but their use will be scrutinized by the compiler and warnings will be
  generated (which can be suppressed to say "I know what I'm doing").  (Downside
  is that regex already has possessive constructs.  Even though they are perhaps
  seriously under-utilized, as well as being visually a mess, do we think that a
  new syntax will improve things?  Well, quite possibly yes.)


  TODO:

  What about `advice_around`?  Maybe this is the right name for our advice
  *generalization*, in which an advising pattern can access the entire match
  structure produced by the advised pattern.  Or maybe this is something else
  altogether.

  TODO:

  Is there an `advice_override` that would make sense?  In Elisp advice, you can
  completely overide an existing function with a new one.  In production Lisp
  systems, this technique, whether accomplished by changing method dispatch or
  by other means, can keep a system running while applying maintenance patches
  or enabling new features.  (ASIDE: The micro-services proponents may gain some
  insights into the nature of the systems they build if they look at them as OO
  systems with dynamic dispatch and mixins.  They should read AMOP.)

  TODO:

  Finally, setting aside the known ways to attach Elisp advice, or to mix in OO
  method invocations, or to do AOP, we might ask what other places can this
  advice concept take us?


-----------------------------------------------------------------------------

# Exploring ideas via syntax

We can take some of the ideas we've been generating and explore them further
using a concrete syntax.  We don't need the final syntax or the best one for
this exercise.  We just need to be concrete enough to:

1. Have a less cumbersome notation than `advice` (which was only an inspiration,
after all).

2. Use the notation to solve some problems, because if we can solve common
problems easily, we may have a good notation on our hands (a necessary
condition).  The exact syntax can change later as needed.

3. Observe whether the notation suggests further (new) ways of looking at text
matching and searching problems.  Do any hard problems become easier to express?
Do any new ideas germinate, ideas that shape our thinking about the task?

## Key ideas

Generalize the idea of a _predicate_ to include:

  * Multiple patterns that match the same input span.  _Delimited_ input spans
    are intended to:
	  1. Unify stream processing with the current model, which forces an input
	     stream to be partitioned, e.g. into lines or blocks, by other code
	     before matching/searching.  Observation: partitioning IS
	     matching/searching. 
      2. Bound the effects of look-arounds and predicates in general, which
         should not only tame algorithmic complexity but also facilitate pattern
         composition, enable better static analysis, and permit new
         optimizations.
  * References to components of a previous match.  As a result, look-behind and
    back-references become related.  Though one is a predicate and the other a
    match construct, they both use a mechanism that provides a referent.
  
## A note on PEGs

PEGs are intended to be grammars for language recognition, as opposed to
language generation in the Chomsky tradition.  In my opinion, they achieve this
almost entirely due to choice being possessive (with star repetition) and
ordered.  The result is that a PEG grammar can be read imperatively: "match
this, try that and then the other, commit to the choice then match more".  By
contrast, a CFG is declarative: "find a way to carve up the input into pieces
like these".

I believe that most attempts at declarative programming techniques have failed,
including parser generators (which have unintuitive behavior and require
considerable parsing knowledge and experience to use) to logic programming in
the Prolog tradition.  And I claim that regex fall into this category.  Patterns
with multiple Kleene star expressions often confound programmers' ability to
predict what they will match, for example, and the presence of look-arounds and
back-references compound the problem.

> A notable exception is SQL, but the success of SQL is probably due to its
> underlying relational algebra, which in turn relies on a rigid data
> organization.  In a world of (finite) tuple types known _a priori_, an algebra
> built on set theory is entirely comprehensible.  It is telling that the
> history of SQL databases consists largely of optimization research, in that
> the problems described by a SQL query are so easily solved and produce
> unambiguous results.  

> When the naive algorithm for a problem is sufficiently simple, and the results
> unambiguous, it is easy for programmers to write a declarative specification.
> By contrast, the naive algorithms in Prolog are backtracking and unification,
> both of which are straightforward (when implemented without regard for
> efficiency) and yet they are not easy for programmers to visualize.  So we
> write programs that work on many inputs, and we discover later that some
> inputs produce unexpected and unacceptable results.  This forces us to change
> the program, which, due to its declarative nature perhaps, is not
> straightforward.  We may know what change we need to make, but not be able to
> predict how that change will alter the behavior we have come to rely upon for
> all the inputs we saw until now.

> A similar, if less dramatic, situation exists with both CFG and regex.  Of
> course, tooling for parsing with a CFG requires a lot of parsing domain
> knowledge to use, thus limiting the utility of those tools.  Regex, which
> appear to require almost no tooling to use, also have a less steep learning
> curve.  You learn a few simple concepts and you can start using regex.  There
> are no tools reporting shift/reduce conflicts, or looking for ambiguity in the
> grammar.  Indeed, there is typically no static analysis at all.  So, any regex
> is a good candidate.  Regex testing is rarely done _in situ_, and tests
> themselves are usually thrown away.  A regex put into production is, then,
> rarely subject to any analysis and thereafter rarely tested as well.

> The basic regex concepts may be simple enough that the declarative nature of a
> regex is not problematic.  With some thought and some testing, a programmer
> can envision what a basic regex will match and not match.  But regex languages
> contain dozens of features whose mutual interactions are not so easily
> predicted.  The result is, in my opinion, a language that is harder than
> Prolog (more accurately, logic-based systems), to use, in the sense that
> programmers have difficulty predicting the results of their programs.  Harder
> or easier, I think there is an essential similarity: the nature of the
> underlying backtracking algorithm combines with other language features
> (unification for Prolog, look-arounds and back-references for regex) to create
> a situation in which a programmer has difficulty predicting what their code
> will do on all but the shortest and simplest of inputs.

PEGs, and top-down parsers in general, are appealing to programmers because of
their imperative flavor.  They strongly resemble other programs that we write,
and we can bring our reasoning about programming in general to reasoning about
parsing.  It is a sequential reasoning in which choices are like program
branches, taken and, if successful, then forgotten, never to be reconsidered.

### The complexity flaw

A great appeal of the PEG model is the idea that a programmer can reason about
what a PEG will do using backtracking -- which is involved in a limited and
straightforward way -- while matching may be implemented using memoization to
effectively collapse backtracking to linear time.

Unfortunately, the linear-time Packrat parsing approach needs too much space to
be broadly useful.  And the non-memoizing backtracking approach can have
exponential time cost in pathological situations, and super-linear polynomial
time costs in others.

Related, but perhaps less inhibiting, another flaw in the PEG concept is that
look-ahead (by which we include negative look-ahead) is unbounded.  It's hard to
see why unbounded look-ahead is needed.  It's easy to see that including it was
an easy decision, though, as otherwise the formalize must distinguish between
bounded and unbounded patterns in a material way.

### The expressiveness flaw

For all their expressiveness, PEGs include neither back-references nor
look-behind.  These missing features are considered essential in regex, viewed
in terms of their ubiquity.

PEG look-behind has been implemented, e.g. in the Lua `lpeg` library, in the
length-restricted form that it exists in many regex implementations.  The target
pattern must match a fixed input length, so that the PEG implementation can
simply be "back up by k characters and attempt matching the target pattern".  As
with regex implementations that use the approach, it is not possible to
look-behind for a single Unicode "character" (really _extended grapheme
cluster_) even though this appears to be a trivial use case. 

Related to expressiveness is the inability of a PEG to efficiently match common
infix expressions.  Producing a "flat parse tree" is efficient, e.g. `items =
item ("," item)*` where a list is the right thing semantically.  But a proper
parse tree is usually desired when a programmer writes an expression parser,
e.g.

	grammar
	   Term = (Factor "*" Factor) / Factor
	   Factor = (Num "*" Factor) / Num / ("(" Expr ")")
	   Num = [0-9]+
	in
	   Expr = (Term "+" Term) / Term
	end

The grammar above exemplifies the "standard approach" to writing a parser for `E
= (E) | E+E | E*E` while (1) avoiding left recursion, and (2) encoding operator
precedence so that the parse tree for "1 + 2 * (3 + 4)" looks like this:

Expr
 |
 Term "+" Term
  |        |
  Factor   Factor "*" Factor
   |        |          |
   Num      Num        "(" Expr ")"
    |        |              |
    1        2              Term "+" Term
                             |        |
                             Factor   Factor
                              |        |
                              Num      Num
                              |        |
                              3        4
	

## Scope (input)

Here we'll refer to the _span_ of a pattern as the span of input matched by that
pattern, and the _result_ of a pattern to be the parse tree it produces.

### Primitives (which may be lowered)

* `in(X, Y)` -- Match pattern `X`; within that span, match and return `Y`.  (An
  infix version might be `X |> Y`, i.e. a pipeline.)

* `with(X, Y)` -- Match `X`; with its result, evaluate and return `Y`, where `Y`
  can refer to the result of `X`, e.g. `X:foo:[2]`.  _This is like `in` but with
  access to the result, so maybe the two forms can be combined._

* `after(X, Y)` -- Match and return pattern `X`, provided that `Y` matches the
  span of `X`. (An infix version might be `X if Y`.)

* `after(X, Y1, ...Yn)` -- match and return pattern `X`, provided that `Y1`
  matches the span of `X`, and so does `Y2` through `Yn`


### Useful compositions and idioms

Sometimes a predicate is better than a look-behind.  If we have `net.fqdn` and
we want only ".com" domains:

    after(net.fqdn, :subdomain[N]==".com")

The pattern above should match "www.example.com:8080".

If we didn't know anything about the structure of `net.fqdn`, and we really did
want just look-behind, we could write that expression.  

    after(net.fqdn, <".com")
	
The pattern above should match "www.example.com" but not
"www.example.com:8080".  Maybe we would want the look-behind to match only a
certain port number, as in:

    after(net.fqdn, <":8080")
	


The look-behind would be bounded because it examines only a fixed number of
characters, but in the event that we wrote an unbounded look-behind for some
reason, it would only operate within the limited span of input provided by the
`after` expression.


Miscellaneous:

* `in(X, after(Y, Z))` -- Match `X`; within that span, match and return `Y`,
  provided that `Z` matches the span of `Y`.  Infix, maybe: `X |> (Y if Z)`.
  
* `with(X, after(Y, Z))` -- Match `X`; with its result, match and return `Y`,
  provided that `Z` matches the span of `Y`.  Both `Y` and `Z` can refer to the
  result of `X`, to identify a sub-span.
  
  
### Generalized predicates

In the notes file `calculus.txt`, we postulate a better abstraction for Unicode
text manipulation of all kinds, not just matching/searching.  There, we develop
a notion of predicate that is more general than the PEG look-ahead or the regex
anchor.

We could use such predicates in matching, where they can serve as a
generalization of back-references, e.g.

* `after(date.us_long, :date:year:digit[0:2] == "20")` returns the result of
  `date.us_long`, provided that pattern matched and the predicate succeeded.

* `in(date.us_long, :date:year:digit[0:2] == "20")` returns the result of the
  predicate, namely true or false, provided the pattern matched.
  
But what does a boolean value mean when interpreted as a pattern, i.e. in
composition?  Perhaps `true` is a pattern matching the empty string, and `false`
matches nothing and thus always fails (as in lpeg)?


### Back references

In regex, `(cat|bat)\1` matches "catcat" and "batbat".  Let's assume that the
`:` notation introduces the root of the parse tree that is the result of a
match.  Then the equivalent would be:

     with("cat"/"bat", :)

What if we want to refer to some match result that was obtained in an earlier
part of the pattern, instead of immediately before the back reference.  E.g. the
regex, `(cat|bat)-\1` matches "cat-cat" and "bat-bat".

    with("cat"/"bat", "-" :)

How to refer to more than one prior match?  The regex, `(cat|bat)(-*)\1\2`
matches, among an infinite number of strings, "catcat", "batbat", "cat-cat-",
"bat-bat-", and "cat--cat--" -- but not "cat--cat-", for instance.

    with("cat"/"bat", with("-"*, ???))
	
How to refer to the result of the anonymous expression `"cat"/"bat"` in the
`???` part of the template above?  If the pattern had a name, we could write
something like this:

    cb = "cat"/"bat"
    with(cb, with("-"*, cb: :))
	
Here, the `cb:` is meant to refer to the actual match result for the innermost
(i.e. lexically scoped) match of `cb`.  The colon indicates that this is a
result reference, and refers to the root span (because there's nothing after the
colon). 

To avoid needing names, we could use De Bruijn indices:

    with("cat"/"bat", with("-"*, 2: 1:))

Here, the `1:` refers to the span of the first (innermost) `with` expression,
namely `"-"*`.  And `2:` refers to the next outer `with` expression, namely
`"cat/"bat"`. 

Is this a terrible idea or a great idea?  Notice that if we replace `"-"*` with
a `with` expression, we _do not_ need to change the indices:

    // Replacing "-"* from the previous example with a named expression:
    foo = with("-"*)
    with("cat"/"bat", with(foo, 2: 1:))
    // Replacing "-"* from the previous example with a `with` expression
    with("cat"/"bat", with(with("-"*), 2: 1:))

The indices need adjustment only if we change the nesting, which is a structural
change, not a substitution:

    with("cat"/"bat", with(with("-"*, 3: 1:)))

Here (above) we assume that `with(X)` makes sense, but only to keep the example
as uncluttered as possible.  Presumably `with(X)` is the same as `X`, except
that it introduces a new anonymous binding, and therefore alters De Bruijn
indices. 

### Back references to repetitions

In regex, a back reference refers to the most recent value of the capture, which
is the only value if there are no repetitions.  In Rosie 1.2.2, there is an
experimental back reference feature that behaves similarly. 

```shell
$ rosie --rpl 'cb={"cat"/"bat"}' match '{cb backref:cb}+$' <<< "catcat"
catcat
$ rosie --rpl 'cb={"cat"/"bat"}' match '{cb backref:cb}+$' <<< "catcatbatbat"
catcatbatbat
$ rosie --rpl 'cb={"cat"/"bat"}' match '{cb backref:cb}+$' <<< "catcatbatcat"
$ rosie --rpl 'cb={"cat"/"bat"}' match '{cb backref:cb}+$' <<< "batcat"
$ 
```

This one is also easy.  Assume `:` is a synonym for `1:`, and refers to the
entire `with` expression (its first argument):

    with("cat"/"bat", :)+


Because Rosie patterns compose well, we can refer back to one component of a
pattern, as in the example below, where the reference is to `first`, which is a
sub-pattern of `cb`:

```shell
$ rosie --rpl 'first="c"/"b"; cb={first "at"}' match '{cb backref:first}+$' <<< "catc"
catc
$ rosie --rpl 'first="c"/"b"; cb={first "at"}' match '{cb backref:first}+$' <<< "catcbatb"
catcbatb
$ rosie --rpl 'first="c"/"b"; cb={first "at"}' match '{cb backref:first}+$' <<< "catcbatc"
$ 
```

Here, the `:` refers to the root of the parse tree (result) of matching the
`with` expression.  That expression, `first "at"` is a sequence of two
components, one of which has a name.  So we can refer to the name:

    first = "c"/"b"
    with(first "at", :first)+

If the part of the `with` pattern to which we want to refer is anonymous, we
could use an index.  The 0th pattern in the 2-pattern sequence `("c"/"b") "at"`
is `"c"/"b"`.

    with(("c"/"b") "at", :[0])+

In RPL, when a pattern is matched repeatedly, we have no way to refer to any
value other than most recently matched value.  Below, the back reference to
`first` always matches the most recent match, which is the second occurrence of
`first` in the definition of `cb`.

```shell
$ rosie --rpl 'first="c"/"b"; cb={first first "at"}' match '{cb backref:first}+$' <<< "ccatc"
ccatc
$ rosie --rpl 'first="c"/"b"; cb={first first "at"}' match '{cb backref:first}+$' <<< "bcatc"
bcatc
$ rosie --rpl 'first="c"/"b"; cb={first first "at"}' match '{cb backref:first}+$' <<< "bcatb"
$ 
```

To replicate the RPL behavior in our new notation, we need to refer to the
second occurrence of `first` in the `with` expression.  Since that expression,
`first first "at"` is a sequence of three components, we could index into the
sequence:

    first = "c"/"b"
    with(first first "at", :[2])+

Maybe we want a syntax that refers to an (implicit) array of all the children of
the root node that have the name `first`?  We could imagine referring to index 1
of that array, meaning the second instance of `first`:

    first = "c"/"b"
    with(first first "at", :first[1])+

Indexing into a sequence has the downside that we need to change the index if we
change the sequence.  But it has the advantage of some referential
transparency. E.g. this expression is equivalent to the one above that uses
`:[2]`: 

    with("c"/"b" "c"/"b" "at", :[2])+

**Note:** Is there any use case for the self-referential back references that,
in perl, allow regex to match $$a^n b^n$$?  Assuming we will support arbitrary
DCFGs or some other reasonable subset of CFGs, then we can recognize this
language directly, using a recursive grammar, and we don't need this strange
circumlocution. 

```shell
$ # Using a non-capturing group
$ perl -e '"aaabbb" =~ /^((?:a(?=a*(\2?+b)))+\2)$/; print $1, "\n";'
aaabbb
$ # With only capturing groups
$ perl -e '"aaabbb" =~ /^((a(?=a*(\3?+b)))+\3)$/; print $1, "\n";'
aaabbb
```

## Recursion

Matching the CFL $$a^n b^n$$ using in PEG uses ordinary recursion like a CFG
would:

```
grammar 
   A = { "a" A "b" } / ""
in
   S = { A $ }
end
```

Matching $$a^n b^n c^n$$, which is NOT a CFL, is possible in PEG due to
unbounded look-ahead (below, in RPL):

```
grammar 
   A = { "a" A? "b" }
   B = { "b" B? "c" }
in
   S = { >{A "c"} "a"+ B $ } / ""
end
```

I don't see any justification for supporting unbounded look-around, because it
gets the user into trouble complexity-wise, while providing only an esoteric
language recognition capability.

The syntax we've been discussing, using `in` and `after`, gives no hints about
such bounds.

We could write `in(.*, .*)` (syntactically) which would appear to match the
entire input twice, but would probably be compiled to simply `.*`.  How would we
express the classic quadratic time look-ahead regex `((?=a*$)a)*`?

Look-ahead is expressed as in regex or RPL today, but semantically operates on a
restricted span of the input.  How would we express the classic quadratic time
look-ahead regex `((?=a*$)a)*`?

```
A = (>("a"*) "a")*
```

This is entirely unsatisfactory if used "at top level", i.e. in a context like
`in(.*, A)` where the input span is unbounded.  But used within 

!@# !@#

Look-behind is expressed as in regex or RPL today, but semantically it operates
within a span.  E.g. to match "bar" only when preceded by "foo" looks completely
familiar: 

```
B = <"foo" "bar" 
```

But if the look-behind is unbounded, 


