1 0.00022934900005111558
2 0.00011389400003736228
3 0.0001755890000367799
4 0.0003329200000052879
5 0.0008711709999715822
6 0.0033357720000140034
7 0.009331597000027614
8 0.04833136199999899
9 0.15325444600000537
10 0.5694831449999356
11 2.2418957379999256
12 8.98002213999996
13 44.37090044899992
